[
  {
    "name": "Apple iPhone 14 128GB Starlight",
    "price": "1050",
    "imgUrl": "https://content2.rozetka.com.ua/goods/images/original/284913536.jpg",
    "article": 462949,
    "color": "Starlight"
  },
  {
    "name": "Apple iPhone 14 128GB Blue",
    "price": "1050",
    "imgUrl": "https://content.rozetka.com.ua/goods/images/big/284957985.jpg",
    "article": 462945,
    "color": "Blue"
  },
  {
    "name": "Apple iPhone 14 128GB Midnight",
    "price": "1050",
    "imgUrl": "https://content1.rozetka.com.ua/goods/images/big/284913535.jpg",
    "article": 462848,
    "color": "Midnight"
  },
  {
    "name": "iPhone 13 Pro Max 256GB Alpine Green",
    "price": "1350",
    "imgUrl": "https://content1.rozetka.com.ua/goods/images/big/259416177.jpg",
    "article": 465735,
    "color": "Alpine Green"
  },
  {
    "name": "iPhone 13 Pro Max 256GB Gold",
    "price": "1350",
    "imgUrl": "https://content1.rozetka.com.ua/goods/images/big/221229083.jpg",
    "article": 465785,
    "color": "Gold"
  },
  {
    "name": "iPhone 13 Pro Max 256GB Silver",
    "price": "1350",
    "imgUrl": "https://content1.rozetka.com.ua/goods/images/big/221300272.jpg",
    "article": 465780,
    "color": "Silver"
  },
  {
    "name": "Apple iPad Air 64GB Space Gray",
    "price": "870",
    "imgUrl": "https://content2.rozetka.com.ua/goods/images/big/259395025.jpg",
    "article": 463012,
    "color": "Space Gray"
  },
  {
    "name": "Apple iPad Pro 128GB Silver",
    "price": "955",
    "imgUrl": "https://content1.rozetka.com.ua/goods/images/big/176652280.jpg",
    "article": 466054,
    "color": "Silver"
  },
  {
    "name": "Apple Watch Series 8 45mm",
    "price": "500",
    "imgUrl": "https://content2.rozetka.com.ua/goods/images/big/285054576.jpg",
    "article": 468515,
    "color": "Silver"
  },
  {
    "name": "Apple Watch Series 7 Nike 45mm",
    "price": "420",
    "imgUrl": "https://content1.rozetka.com.ua/goods/images/big/229188882.jpg",
    "article": 468035,
    "color": "Pure Platinum-Black"
  }
]
