<svg xmlns="http://www.w3.org/2000/svg" width="100" viewBox="0 0 216 106.704">
    <g fillRule="evenodd" clipRule="evenodd">
        <path fill="#fff22d" d="M0 52.848h216v53.856H0V52.848z" />
        <path fill="#1376b8" d="M0 0h216v52.776H0V0z" />
    </g>
</svg>